<?xml version="1.0" standalone="no"?>
<!DOCTYPE svg PUBLIC "-//W3C//DTD SVG 20010904//EN"
 "http://www.w3.org/TR/2001/REC-SVG-20010904/DTD/svg10.dtd">
<svg version="1.0" xmlns="http://www.w3.org/2000/svg"
 width="570.000000pt" height="428.000000pt" viewBox="0 0 570.000000 428.000000"
 preserveAspectRatio="xMidYMid meet">

<g transform="translate(0.000000,428.000000) scale(0.100000,-0.100000)"
fill="#000000" stroke="none">
<path d="M1984 3920 c-278 -39 -520 -232 -634 -506 -50 -121 -63 -199 -57
-349 7 -156 22 -218 87 -350 71 -145 177 -260 306 -332 62 -35 166 -70 223
-75 19 -2 36 -7 37 -13 2 -5 -82 -53 -186 -105 -105 -52 -190 -98 -190 -102 0
-8 20 -13 84 -22 22 -3 46 -12 54 -20 13 -13 10 -22 -25 -78 -60 -95 -109
-195 -133 -276 -31 -103 -26 -242 12 -325 63 -134 223 -232 415 -253 77 -8
113 0 113 26 0 23 36 50 67 50 70 0 196 78 229 143 19 35 20 96 4 127 -26 49
-126 61 -153 19 -18 -29 -27 -23 -27 16 0 45 -34 65 -76 46 -29 -13 -44 -7
-44 18 0 22 -19 41 -43 41 -25 0 -15 33 24 80 16 19 43 58 60 87 48 82 95 104
125 57 22 -33 87 -66 111 -56 10 4 53 36 96 71 77 64 112 108 133 166 8 21 28
40 70 63 75 43 89 55 130 120 49 75 111 140 174 180 129 83 316 303 389 456
60 126 92 286 57 286 -8 0 -24 8 -36 18 l-23 18 25 20 c72 57 58 134 -24 134
-21 0 -38 6 -41 14 -6 15 11 36 28 36 6 0 21 10 33 23 39 42 24 99 -33 123
-134 56 -281 -63 -301 -242 -8 -72 -19 -94 -45 -94 -20 0 -33 -23 -73 -130
-14 -41 -112 -178 -127 -180 -3 0 3 25 13 56 77 229 8 542 -167 758 -156 191
-413 291 -661 256z m53 -707 c32 -16 95 -49 141 -73 115 -60 155 -59 282 2
161 78 256 83 321 19 95 -96 23 -270 -143 -346 -76 -35 -142 -40 -294 -25
-103 11 -141 11 -209 0 -194 -30 -379 49 -452 194 -76 150 27 272 224 262 57
-2 86 -10 130 -33z"/>
<path d="M1860 3145 c0 -28 42 -55 87 -55 38 0 48 -9 62 -52 16 -47 58 -65
102 -43 16 9 29 20 29 25 0 5 10 18 22 30 12 11 18 23 15 27 -4 3 -37 17 -75
31 -37 14 -89 33 -117 43 -27 10 -67 18 -87 19 -34 0 -38 -3 -38 -25z"/>
<path d="M2625 3090 c-49 -15 -106 -35 -125 -45 l-35 -19 49 -6 c37 -5 53 -12
68 -33 11 -15 28 -27 37 -27 24 0 71 38 71 57 0 8 11 24 25 35 27 21 33 53 13
60 -7 2 -53 -8 -103 -22z"/>
<path d="M4330 3108 c-63 -17 -80 -43 -80 -116 0 -47 -10 -93 -36 -173 -20
-60 -40 -109 -44 -109 -4 0 -27 53 -50 118 -54 153 -90 232 -105 232 -20 0
-230 -110 -331 -173 -177 -110 -335 -238 -489 -398 -134 -138 -195 -217 -295
-382 -97 -160 -99 -147 32 -217 46 -24 102 -56 125 -72 23 -15 45 -28 49 -28
15 0 74 -52 74 -65 0 -19 -59 -85 -75 -85 -8 0 -56 35 -107 78 -233 194 -244
197 -75 24 75 -78 137 -147 137 -154 0 -17 -80 -70 -99 -66 -8 2 -53 57 -100
124 -47 66 -102 140 -122 164 l-36 43 -64 -48 c-95 -73 -179 -146 -179 -157 0
-5 14 -21 30 -35 54 -45 54 -49 -5 -185 -98 -229 -184 -501 -235 -737 -28
-134 -31 -127 48 -145 88 -20 395 -76 415 -76 11 0 19 17 27 58 23 115 80 320
126 452 161 465 381 825 694 1141 162 164 298 270 513 398 76 46 149 93 163
105 15 12 41 61 64 121 21 55 50 129 65 163 37 88 52 176 35 196 -14 18 -21
18 -70 4z"/>
<path d="M2237 476 c-40 -37 -56 -79 -37 -101 10 -12 47 -15 214 -14 110 1
212 4 226 8 32 9 40 55 13 69 -10 5 -75 12 -144 14 -107 4 -133 8 -181 30
l-56 26 -35 -32z"/>
</g>
</svg>
