<svg xmlns="http://www.w3.org/2000/svg" width="24" height="24" viewBox="0 0 24 24">
  <path fill="none" stroke="#D03800" stroke-linecap="round" stroke-linejoin="round" stroke-width="1.5" d="M13.5 0L0 13.5M0 0L13.5 13.5" transform="translate(5.25 5.25)"/>
</svg>
