<svg xmlns="http://www.w3.org/2000/svg" width="24" height="24" viewBox="0 0 24 24">
  <path fill="#0062B7" d="M15.5189099,17.8796727 L16.5990539,17.0965683 C16.688481,17.0317336 16.7084171,16.9066798 16.6435825,16.8172527 C16.6426914,16.8160236 16.6417863,16.8148047 16.6408675,16.8135962 L13.6952933,12.9395257 C13.6284392,12.8515981 13.6455227,12.7261227 13.7334503,12.6592686 C13.7533838,12.6441126 13.7759861,12.6328348 13.8000822,12.6260214 L18.4349733,11.315466 C18.5412629,11.2854117 18.6030638,11.1748831 18.5730095,11.0685935 C18.572283,11.0660241 18.5715051,11.0634695 18.5706762,11.0609313 L18.1345078,9.72516541 C18.1002218,9.62016443 17.9873073,9.56283864 17.8823063,9.59712467 C17.8804563,9.59772876 17.8786152,9.59835981 17.8767836,9.59901764 L13.3341019,11.2305442 C13.2301464,11.2678803 13.1156069,11.2138746 13.0782708,11.1099191 C13.0698798,11.0865562 13.0659116,11.0618353 13.066569,11.0370199 L13.1945617,6.20529616 C13.1974867,6.09487794 13.1103462,6.00299512 12.999928,6.00007014 C12.998163,6.00002338 12.9963974,6 12.9946318,6 L11.6406623,6 C11.5302053,6 11.4406623,6.08954305 11.4406623,6.2 C11.4406623,6.20176562 11.4406857,6.20353116 11.4407324,6.20529616 L11.5687436,11.0377173 C11.5716686,11.1481356 11.4845281,11.2400184 11.3741099,11.2429434 C11.3494442,11.2435968 11.3248705,11.2396803 11.3016299,11.2313917 L6.72656551,9.59972534 C6.62252712,9.56262074 6.50810812,9.61688129 6.47100352,9.72091968 C6.46998415,9.72377792 6.46902996,9.72665899 6.4681417,9.72956065 L6.05981521,11.0634272 C6.02748288,11.1690461 6.08689342,11.2808777 6.19251235,11.31321 C6.19388287,11.3136296 6.19525786,11.3140344 6.19663708,11.3144244 L10.8352119,12.6260214 C10.9415015,12.6560757 11.0033024,12.7666042 10.9732481,12.8728938 C10.9664347,12.89699 10.9551569,12.9195923 10.9400009,12.9395257 L7.99442664,16.8135962 C7.92757256,16.9015238 7.94465607,17.0269992 8.03258371,17.0938533 C8.0337922,17.0947721 8.03501111,17.0956772 8.03624021,17.0965683 L9.11638424,17.8796727 C9.20581135,17.9445073 9.3308652,17.9245712 9.39569985,17.8351441 C9.39666567,17.8338119 9.39761502,17.8324679 9.39854767,17.8311123 L12.1528771,13.8277264 C12.2154851,13.7367265 12.3400088,13.7137103 12.4310088,13.7763182 C12.4511417,13.7901697 12.4685655,13.8075936 12.482417,13.8277264 L15.2367464,17.8311123 C15.2993544,17.9221122 15.4238781,17.9451285 15.5148781,17.8825205 C15.5162337,17.8815879 15.5175777,17.8806385 15.5189099,17.8796727 Z"/>
</svg>
