<svg xmlns="http://www.w3.org/2000/svg" width="16" height="16" viewBox="0 0 16 16">
  <g fill="none" fill-rule="evenodd" stroke="#0062B7" stroke-linecap="round" transform="translate(2.5 1)">
    <g transform="translate(.741 1)">
      <path d="M1.04371082,6.38876891 L1.0130651,4.01289766 C1.00594192,3.46065885 1.44784545,3.00720636 2.00008426,3.00008318 C2.00438325,3.00002773 2.00868256,3 2.01298192,3 L8.48214286,3 C9.03442761,3 9.48214286,3.44771525 9.48214286,4 L9.48214286,7.8077498 C9.48214286,8.35840009 9.03697542,8.80543541 8.48632996,8.80774104 L3.48362996,8.82868805 L3.48362996,8.82868805" transform="rotate(-45 5.241 5.914)"/>
      <line x1="3.443" x2="5.834" y1="6.514" y2="4.089"/>
      <line x1="4.868" x2="6.363" y1="7.093" y2="5.54"/>
    </g>
    <line x2="11.5" y1="11.528" y2="11.528"/>
  </g>
</svg>
